{
	"restaurants": [
		{
			"id": "0001",
			"name": "Guacamole - Comida Veggie",
			"logo": "http://sigmaapp.com.br/naveg/img/restaurants/guacamole.png",
			"bestLogo": "http://sigmaapp.com.br/naveg/img/restaurants/guacamole-best.png",
			"featuredImage": "http://sigmaapp.com.br/naveg/img/restaurants/slider.jpg",
			"city": "Fortaleza",
			"state": "Ceará",
			"street": "Padre Francisco Pinto 257 Benfica",
			"category": "Lanches",
			"averagePrice": "$$",
			"distance": "1,8km",
			"rating": 5,
			"description": "Lorem ipsum dolor sit amet",
			"phone": ["(85) 3333 - 3333", "(85) 9 9988 - 8855"],
			"timetable": [
				{
					"open": "18:00",
					"close": "22:00"
				},
				{
					"open": "18:00",
					"close": "22:00"
				},
				{
					"open": "18:00",
					"close": "22:00"
				},
				{
					"open": "18:00",
					"close": "22:00"
				},
				{
					"open": "18:00",
					"close": "22:00"
				},
				{
					"open": "18:00",
					"close": "22:00"
				},
				{
					"open": "18:00",
					"close": "22:00"
				}
			],
			"comments": [
				{
					"name": "Jonathan Sales",
			        "avatar": "http://sigmaapp.com.br/naveg/img/users/jonathan.jpg",
			        "comment": "Gostei bastante da comida",
			        "rating": 3
				},
				{
					"name": "Mariana Gomes",
			        "avatar": "http://sigmaapp.com.br/naveg/img/users/mariana.jpg",
			        "comment": "Achei sensacional, e o espaço é muito agradável. Não é lotado, o atendimento é ótimo e você se sente realmente em contato com a natureza!",
			        "rating": 5
				},
				{
					"name": "Jessica Marinho",
			        "avatar": "http://sigmaapp.com.br/naveg/img/users/jessica.jpg",
			        "comment": "Aconchegante e com preços bem acessíveis",
			        "rating": 4
				}
			],
			"dishes": [
				{
					"name": "Moqueca de banana da terra",
					"description": "Acompanha palmito, baião e farofa especial.",
					"image": "http://sigmaapp.com.br/naveg/img/dishes/moqueca-banana.jpg",
					"rating": 4,
					"price": 18,
					"tags": [
						"milkfree",
						"glutenfree",
						"sugarfree"
					]
				},
				{
					"name": "Sorvete de paçoca e amendoim",
					"description": "Acompanha palmito, baião e farofa especial.",
					"image": "http://sigmaapp.com.br/naveg/img/dishes/sorvete-pacoca.jpg",
					"rating": 5,
					"price": 10.5,
					"tags": [
						"glutenfree"
					]
				},
				{
					"name": "Sopa de feijão preto",
					"description": "Acompanha palmito, baião e farofa especial.",
					"image": "http://sigmaapp.com.br/naveg/img/dishes/sopa-feijao.jpg",
					"rating": 4.2,
					"price": 15.0,
					"tags": [
						"glutenfree",
						"sugarfree",
						"milkfree"
					]
				},
				{
					"name": "Patê de grão-de-bico",
					"description": "Acompanha palmito, baião e farofa especial.",
					"image": "http://sigmaapp.com.br/naveg/img/dishes/pate-grao-bico.jpg",
					"rating": 5,
					"price": 9.0,
					"tags": [
						"glutenfree"
					]
				}
			]
		},
		{
			"id": "0002",
			"name": "Tofu - Comida vegana",
			"logo": "http://sigmaapp.com.br/naveg/img/restaurants/tofu.png",
			"bestLogo": "http://sigmaapp.com.br/naveg/img/restaurants/tofu-best.png",
			"featuredImage": "http://sigmaapp.com.br/naveg/img/restaurants/slider.jpg",
			"city": "Fortaleza",
			"state": "Ceará",
			"street": "Padre Francisco Pinto 257 Benfica",
			"category": "Lanches",
			"averagePrice": "$$$$",
			"distance": "2,5km",
			"rating": 4.5,
			"description": "Lorem ipsum dolor sit amet",
			"phone": ["(85) 3333 - 3333", "(85) 9 9988 - 8855"],
			"timetable": [
				{
					"open": "18:00",
					"close": "22:00"
				},
				{
					"open": "18:00",
					"close": "22:00"
				},
				{
					"open": "18:00",
					"close": "22:00"
				},
				{
					"open": "18:00",
					"close": "22:00"
				},
				{
					"open": "18:00",
					"close": "22:00"
				},
				{
					"open": "18:00",
					"close": "22:00"
				},
				{
					"open": "18:00",
					"close": "22:00"
				}
			],
			"comments": [
				{
					"name": "Jonathan Sales",
			        "avatar": "http://sigmaapp.com.br/naveg/img/users/jonathan.jpg",
			        "comment": "Gostei bastante da comida",
			        "rating": 3
				},
				{
					"name": "Mariana Gomes",
			        "avatar": "http://sigmaapp.com.br/naveg/img/users/mariana.jpg",
			        "comment": "Achei sensacional, e o espaço é muito agradável. Não é lotado, o atendimento é ótimo e você se sente realmente em contato com a natureza!",
			        "rating": 5
				},
				{
					"name": "Jessica Marinho",
			        "avatar": "http://sigmaapp.com.br/naveg/img/users/jessica.jpg",
			        "comment": "Aconchegante e com preços bem acessíveis",
			        "rating": 4
				}
			],
			"dishes": [
				{
					"name": "Moqueca de banana da terra",
					"description": "Acompanha palmito, baião e farofa especial.",
					"image": "http://sigmaapp.com.br/naveg/img/dishes/moqueca-banana.jpg",
					"rating": 4,
					"price": 18,
					"tags": [
						"milkfree",
						"glutenfree",
						"sugarfree"
					]
				},
				{
					"name": "Sorvete de paçoca e amendoim",
					"description": "Acompanha palmito, baião e farofa especial.",
					"image": "http://sigmaapp.com.br/naveg/img/dishes/sorvete-pacoca.jpg",
					"rating": 5,
					"price": 10.5,
					"tags": [
						"glutenfree"
					]
				},
				{
					"name": "Sopa de feijão preto",
					"description": "Acompanha palmito, baião e farofa especial.",
					"image": "http://sigmaapp.com.br/naveg/img/dishes/sopa-feijao.jpg",
					"rating": 4.2,
					"price": 15.0,
					"tags": [
						"glutenfree",
						"sugarfree",
						"milkfree"
					]
				},
				{
					"name": "Patê de grão-de-bico",
					"description": "Acompanha palmito, baião e farofa especial.",
					"image": "http://sigmaapp.com.br/naveg/img/dishes/pate-grao-bico.jpg",
					"rating": 5,
					"price": 9.0,
					"tags": [
						"glutenfree"
					]
				}
			]
		},
		{
			"id": "0003",
			"name": "ECO Vegan",
			"logo": "http://sigmaapp.com.br/naveg/img/restaurants/eco.png",
			"bestLogo": "http://sigmaapp.com.br/naveg/img/restaurants/eco-best.png",
			"featuredImage": "http://sigmaapp.com.br/naveg/img/restaurants/slider.jpg",
			"city": "Fortaleza",
			"state": "Ceará",
			"street": "Padre Francisco Pinto 257 Benfica",
			"category": "Lanches",
			"averagePrice": "$$$",
			"distance": "1,0km",
			"rating": 4,
			"description": "Lorem ipsum dolor sit amet",
			"phone": ["(85) 3333 - 3333", "(85) 9 9988 - 8855"],
			"timetable": [
				{
					"open": "18:00",
					"close": "22:00"
				},
				{
					"open": "18:00",
					"close": "22:00"
				},
				{
					"open": "18:00",
					"close": "22:00"
				},
				{
					"open": "18:00",
					"close": "22:00"
				},
				{
					"open": "18:00",
					"close": "22:00"
				},
				{
					"open": "18:00",
					"close": "22:00"
				},
				{
					"open": "18:00",
					"close": "22:00"
				}
			],
			"comments": [
				{
					"name": "Jonathan Sales",
			        "avatar": "http://sigmaapp.com.br/naveg/img/users/jonathan.jpg",
			        "comment": "Gostei bastante da comida",
			        "rating": 3
				},
				{
					"name": "Mariana Gomes",
			        "avatar": "http://sigmaapp.com.br/naveg/img/users/mariana.jpg",
			        "comment": "Achei sensacional, e o espaço é muito agradável. Não é lotado, o atendimento é ótimo e você se sente realmente em contato com a natureza!",
			        "rating": 5
				},
				{
					"name": "Jessica Marinho",
			        "avatar": "http://sigmaapp.com.br/naveg/img/users/jessica.jpg",
			        "comment": "Aconchegante e com preços bem acessíveis",
			        "rating": 4
				}
			],
			"dishes": [
				{
					"name": "Moqueca de banana da terra",
					"description": "Acompanha palmito, baião e farofa especial.",
					"image": "http://sigmaapp.com.br/naveg/img/dishes/moqueca-banana.jpg",
					"rating": 4,
					"price": 18,
					"tags": [
						"milkfree",
						"glutenfree",
						"sugarfree"
					]
				},
				{
					"name": "Sorvete de paçoca e amendoim",
					"description": "Acompanha palmito, baião e farofa especial.",
					"image": "http://sigmaapp.com.br/naveg/img/dishes/sorvete-pacoca.jpg",
					"rating": 5,
					"price": 10.5,
					"tags": [
						"glutenfree"
					]
				},
				{
					"name": "Sopa de feijão preto",
					"description": "Acompanha palmito, baião e farofa especial.",
					"image": "http://sigmaapp.com.br/naveg/img/dishes/sopa-feijao.jpg",
					"rating": 4.2,
					"price": 15.0,
					"tags": [
						"glutenfree",
						"sugarfree",
						"milkfree"
					]
				},
				{
					"name": "Patê de grão-de-bico",
					"description": "Acompanha palmito, baião e farofa especial.",
					"image": "http://sigmaapp.com.br/naveg/img/dishes/pate-grao-bico.jpg",
					"rating": 5,
					"price": 9.0,
					"tags": [
						"glutenfree"
					]
				}
			]
		},
		{
			"id": "0004",
			"name": "Organic Cafe",
			"logo": "http://sigmaapp.com.br/naveg/img/restaurants/organic-cafe.png",
			"bestLogo": "http://sigmaapp.com.br/naveg/img/restaurants/organic-cafe-best.png",
			"featuredImage": "http://sigmaapp.com.br/naveg/img/restaurants/slider.jpg",
			"city": "Fortaleza",
			"state": "Ceará",
			"street": "Padre Francisco Pinto 257 Benfica",
			"category": "Lanches",
			"averagePrice": "$$",
			"distance": "1,8km",
			"rating": 5,
			"description": "Lorem ipsum dolor sit amet",
			"phone": ["(85) 3333 - 3333", "(85) 9 9988 - 8855"],
			"timetable": [
				{
					"open": "18:00",
					"close": "22:00"
				},
				{
					"open": "18:00",
					"close": "22:00"
				},
				{
					"open": "18:00",
					"close": "22:00"
				},
				{
					"open": "18:00",
					"close": "22:00"
				},
				{
					"open": "18:00",
					"close": "22:00"
				},
				{
					"open": "18:00",
					"close": "22:00"
				},
				{
					"open": "18:00",
					"close": "22:00"
				}
			],
			"comments": [
				{
					"name": "Jonathan Sales",
			        "avatar": "http://sigmaapp.com.br/naveg/img/users/jonathan.jpg",
			        "comment": "Gostei bastante da comida",
			        "rating": 3
				},
				{
					"name": "Mariana Gomes",
			        "avatar": "http://sigmaapp.com.br/naveg/img/users/mariana.jpg",
			        "comment": "Achei sensacional, e o espaço é muito agradável. Não é lotado, o atendimento é ótimo e você se sente realmente em contato com a natureza!",
			        "rating": 5
				},
				{
					"name": "Jessica Marinho",
			        "avatar": "http://sigmaapp.com.br/naveg/img/users/jessica.jpg",
			        "comment": "Aconchegante e com preços bem acessíveis",
			        "rating": 4
				}
			],
			"dishes": [
				{
					"name": "Moqueca de banana da terra",
					"description": "Acompanha palmito, baião e farofa especial.",
					"image": "http://sigmaapp.com.br/naveg/img/dishes/moqueca-banana.jpg",
					"rating": 4,
					"price": 18,
					"tags": [
						"milkfree",
						"glutenfree",
						"sugarfree"
					]
				},
				{
					"name": "Sorvete de paçoca e amendoim",
					"description": "Acompanha palmito, baião e farofa especial.",
					"image": "http://sigmaapp.com.br/naveg/img/dishes/sorvete-pacoca.jpg",
					"rating": 5,
					"price": 10.5,
					"tags": [
						"glutenfree"
					]
				},
				{
					"name": "Sopa de feijão preto",
					"description": "Acompanha palmito, baião e farofa especial.",
					"image": "http://sigmaapp.com.br/naveg/img/dishes/sopa-feijao.jpg",
					"rating": 4.2,
					"price": 15.0,
					"tags": [
						"glutenfree",
						"sugarfree",
						"milkfree"
					]
				},
				{
					"name": "Patê de grão-de-bico",
					"description": "Acompanha palmito, baião e farofa especial.",
					"image": "http://sigmaapp.com.br/naveg/img/dishes/pate-grao-bico.jpg",
					"rating": 5,
					"price": 9.0,
					"tags": [
						"glutenfree"
					]
				}
			]
		},
		{
			"id": "0001",
			"name": "Guacamole - Comida Veggie",
			"logo": "http://sigmaapp.com.br/naveg/img/restaurants/guacamole.png",
			"bestLogo": "http://sigmaapp.com.br/naveg/img/restaurants/guacamole-best.png",
			"featuredImage": "http://sigmaapp.com.br/naveg/img/restaurants/slider.jpg",
			"city": "Fortaleza",
			"state": "Ceará",
			"street": "Padre Francisco Pinto 257 Benfica",
			"category": "Lanches",
			"averagePrice": "$$",
			"distance": "1,8km",
			"rating": 4,
			"description": "Lorem ipsum dolor sit amet",
			"phone": ["(85) 3333 - 3333", "(85) 9 9988 - 8855"],
			"timetable": [
				{
					"open": "18:00",
					"close": "22:00"
				},
				{
					"open": "18:00",
					"close": "22:00"
				},
				{
					"open": "18:00",
					"close": "22:00"
				},
				{
					"open": "18:00",
					"close": "22:00"
				},
				{
					"open": "18:00",
					"close": "22:00"
				},
				{
					"open": "18:00",
					"close": "22:00"
				},
				{
					"open": "18:00",
					"close": "22:00"
				}
			],
			"comments": [
				{
					"name": "Jonathan Sales",
			        "avatar": "http://sigmaapp.com.br/naveg/img/users/jonathan.jpg",
			        "comment": "Gostei bastante da comida",
			        "rating": 3
				},
				{
					"name": "Mariana Gomes",
			        "avatar": "http://sigmaapp.com.br/naveg/img/users/mariana.jpg",
			        "comment": "Achei sensacional, e o espaço é muito agradável. Não é lotado, o atendimento é ótimo e você se sente realmente em contato com a natureza!",
			        "rating": 5
				},
				{
					"name": "Jessica Marinho",
			        "avatar": "http://sigmaapp.com.br/naveg/img/users/jessica.jpg",
			        "comment": "Aconchegante e com preços bem acessíveis",
			        "rating": 4
				}
			],
			"dishes": [
				{
					"name": "Moqueca de banana da terra",
					"description": "Acompanha palmito, baião e farofa especial.",
					"image": "http://sigmaapp.com.br/naveg/img/dishes/moqueca-banana.jpg",
					"rating": 4,
					"price": 18,
					"tags": [
						"milkfree",
						"glutenfree",
						"sugarfree"
					]
				},
				{
					"name": "Sorvete de paçoca e amendoim",
					"description": "Acompanha palmito, baião e farofa especial.",
					"image": "http://sigmaapp.com.br/naveg/img/dishes/sorvete-pacoca.jpg",
					"rating": 5,
					"price": 10.5,
					"tags": [
						"glutenfree"
					]
				},
				{
					"name": "Sopa de feijão preto",
					"description": "Acompanha palmito, baião e farofa especial.",
					"image": "http://sigmaapp.com.br/naveg/img/dishes/sopa-feijao.jpg",
					"rating": 4.2,
					"price": 15.0,
					"tags": [
						"glutenfree",
						"sugarfree",
						"milkfree"
					]
				},
				{
					"name": "Patê de grão-de-bico",
					"description": "Acompanha palmito, baião e farofa especial.",
					"image": "http://sigmaapp.com.br/naveg/img/dishes/pate-grao-bico.jpg",
					"rating": 5,
					"price": 9.0,
					"tags": [
						"glutenfree"
					]
				}
			]
		},
		{
			"id": "0002",
			"name": "Tofu - Comida vegana",
			"logo": "http://sigmaapp.com.br/naveg/img/restaurants/tofu.png",
			"bestLogo": "http://sigmaapp.com.br/naveg/img/restaurants/tofu-best.png",
			"featuredImage": "http://sigmaapp.com.br/naveg/img/restaurants/slider.jpg",
			"city": "Fortaleza",
			"state": "Ceará",
			"street": "Padre Francisco Pinto 257 Benfica",
			"category": "Lanches",
			"averagePrice": "$$$$",
			"distance": "2,5km",
			"rating": 4.5,
			"description": "Lorem ipsum dolor sit amet",
			"phone": ["(85) 3333 - 3333", "(85) 9 9988 - 8855"],
			"timetable": [
				{
					"open": "18:00",
					"close": "22:00"
				},
				{
					"open": "18:00",
					"close": "22:00"
				},
				{
					"open": "18:00",
					"close": "22:00"
				},
				{
					"open": "18:00",
					"close": "22:00"
				},
				{
					"open": "18:00",
					"close": "22:00"
				},
				{
					"open": "18:00",
					"close": "22:00"
				},
				{
					"open": "18:00",
					"close": "22:00"
				}
			],
			"comments": [
				{
					"name": "Jonathan Sales",
			        "avatar": "http://sigmaapp.com.br/naveg/img/users/jonathan.jpg",
			        "comment": "Gostei bastante da comida",
			        "rating": 3
				},
				{
					"name": "Mariana Gomes",
			        "avatar": "http://sigmaapp.com.br/naveg/img/users/mariana.jpg",
			        "comment": "Achei sensacional, e o espaço é muito agradável. Não é lotado, o atendimento é ótimo e você se sente realmente em contato com a natureza!",
			        "rating": 5
				},
				{
					"name": "Jessica Marinho",
			        "avatar": "http://sigmaapp.com.br/naveg/img/users/jessica.jpg",
			        "comment": "Aconchegante e com preços bem acessíveis",
			        "rating": 4
				}
			],
			"dishes": [
				{
					"name": "Moqueca de banana da terra",
					"description": "Acompanha palmito, baião e farofa especial.",
					"image": "http://sigmaapp.com.br/naveg/img/dishes/moqueca-banana.jpg",
					"rating": 4,
					"price": 18,
					"tags": [
						"milkfree",
						"glutenfree",
						"sugarfree"
					]
				},
				{
					"name": "Sorvete de paçoca e amendoim",
					"description": "Acompanha palmito, baião e farofa especial.",
					"image": "http://sigmaapp.com.br/naveg/img/dishes/sorvete-pacoca.jpg",
					"rating": 5,
					"price": 10.5,
					"tags": [
						"glutenfree"
					]
				},
				{
					"name": "Sopa de feijão preto",
					"description": "Acompanha palmito, baião e farofa especial.",
					"image": "http://sigmaapp.com.br/naveg/img/dishes/sopa-feijao.jpg",
					"rating": 4.2,
					"price": 15.0,
					"tags": [
						"glutenfree",
						"sugarfree",
						"milkfree"
					]
				},
				{
					"name": "Patê de grão-de-bico",
					"description": "Acompanha palmito, baião e farofa especial.",
					"image": "http://sigmaapp.com.br/naveg/img/dishes/pate-grao-bico.jpg",
					"rating": 5,
					"price": 9.0,
					"tags": [
						"glutenfree"
					]
				}
			]
		},
		{
			"id": "0003",
			"name": "ECO Vegan",
			"logo": "http://sigmaapp.com.br/naveg/img/restaurants/eco.png",
			"bestLogo": "http://sigmaapp.com.br/naveg/img/restaurants/eco-best.png",
			"featuredImage": "http://sigmaapp.com.br/naveg/img/restaurants/slider.jpg",
			"city": "Fortaleza",
			"state": "Ceará",
			"street": "Padre Francisco Pinto 257 Benfica",
			"category": "Lanches",
			"averagePrice": "$$$",
			"distance": "1,0km",
			"rating": 4,
			"description": "Lorem ipsum dolor sit amet",
			"phone": ["(85) 3333 - 3333", "(85) 9 9988 - 8855"],
			"timetable": [
				{
					"open": "18:00",
					"close": "22:00"
				},
				{
					"open": "18:00",
					"close": "22:00"
				},
				{
					"open": "18:00",
					"close": "22:00"
				},
				{
					"open": "18:00",
					"close": "22:00"
				},
				{
					"open": "18:00",
					"close": "22:00"
				},
				{
					"open": "18:00",
					"close": "22:00"
				},
				{
					"open": "18:00",
					"close": "22:00"
				}
			],
			"comments": [
				{
					"name": "Jonathan Sales",
			        "avatar": "http://sigmaapp.com.br/naveg/img/users/jonathan.jpg",
			        "comment": "Gostei bastante da comida",
			        "rating": 3
				},
				{
					"name": "Mariana Gomes",
			        "avatar": "http://sigmaapp.com.br/naveg/img/users/mariana.jpg",
			        "comment": "Achei sensacional, e o espaço é muito agradável. Não é lotado, o atendimento é ótimo e você se sente realmente em contato com a natureza!",
			        "rating": 5
				},
				{
					"name": "Jessica Marinho",
			        "avatar": "http://sigmaapp.com.br/naveg/img/users/jessica.jpg",
			        "comment": "Aconchegante e com preços bem acessíveis",
			        "rating": 4
				}
			],
			"dishes": [
				{
					"name": "Moqueca de banana da terra",
					"description": "Acompanha palmito, baião e farofa especial.",
					"image": "http://sigmaapp.com.br/naveg/img/dishes/moqueca-banana.jpg",
					"rating": 4,
					"price": 18,
					"tags": [
						"milkfree",
						"glutenfree",
						"sugarfree"
					]
				},
				{
					"name": "Sorvete de paçoca e amendoim",
					"description": "Acompanha palmito, baião e farofa especial.",
					"image": "http://sigmaapp.com.br/naveg/img/dishes/sorvete-pacoca.jpg",
					"rating": 5,
					"price": 10.5,
					"tags": [
						"glutenfree"
					]
				},
				{
					"name": "Sopa de feijão preto",
					"description": "Acompanha palmito, baião e farofa especial.",
					"image": "http://sigmaapp.com.br/naveg/img/dishes/sopa-feijao.jpg",
					"rating": 4.2,
					"price": 15.0,
					"tags": [
						"glutenfree",
						"sugarfree",
						"milkfree"
					]
				},
				{
					"name": "Patê de grão-de-bico",
					"description": "Acompanha palmito, baião e farofa especial.",
					"image": "http://sigmaapp.com.br/naveg/img/dishes/pate-grao-bico.jpg",
					"rating": 5,
					"price": 9.0,
					"tags": [
						"glutenfree"
					]
				}
			]
		},
		{
			"id": "0004",
			"name": "Organic Cafe",
			"logo": "http://sigmaapp.com.br/naveg/img/restaurants/organic-cafe.png",
			"bestLogo": "http://sigmaapp.com.br/naveg/img/restaurants/organic-cafe-best.png",
			"featuredImage": "http://sigmaapp.com.br/naveg/img/restaurants/slider.jpg",
			"city": "Fortaleza",
			"state": "Ceará",
			"street": "Padre Francisco Pinto 257 Benfica",
			"category": "Lanches",
			"averagePrice": "$$",
			"distance": "1,8km",
			"rating": 5,
			"description": "Lorem ipsum dolor sit amet",
			"phone": ["(85) 3333 - 3333", "(85) 9 9988 - 8855"],
			"timetable": [
				{
					"open": "18:00",
					"close": "22:00"
				},
				{
					"open": "18:00",
					"close": "22:00"
				},
				{
					"open": "18:00",
					"close": "22:00"
				},
				{
					"open": "18:00",
					"close": "22:00"
				},
				{
					"open": "18:00",
					"close": "22:00"
				},
				{
					"open": "18:00",
					"close": "22:00"
				},
				{
					"open": "18:00",
					"close": "22:00"
				}
			],
			"comments": [
				{
					"name": "Jonathan Sales",
			        "avatar": "http://sigmaapp.com.br/naveg/img/users/jonathan.jpg",
			        "comment": "Gostei bastante da comida",
			        "rating": 3
				},
				{
					"name": "Mariana Gomes",
			        "avatar": "http://sigmaapp.com.br/naveg/img/users/mariana.jpg",
			        "comment": "Achei sensacional, e o espaço é muito agradável. Não é lotado, o atendimento é ótimo e você se sente realmente em contato com a natureza!",
			        "rating": 5
				},
				{
					"name": "Jessica Marinho",
			        "avatar": "http://sigmaapp.com.br/naveg/img/users/jessica.jpg",
			        "comment": "Aconchegante e com preços bem acessíveis",
			        "rating": 4
				}
			],
			"dishes": [
				{
					"name": "Moqueca de banana da terra",
					"description": "Acompanha palmito, baião e farofa especial.",
					"image": "http://sigmaapp.com.br/naveg/img/dishes/moqueca-banana.jpg",
					"rating": 4,
					"price": 18,
					"tags": [
						"milkfree",
						"glutenfree",
						"sugarfree"
					]
				},
				{
					"name": "Sorvete de paçoca e amendoim",
					"description": "Acompanha palmito, baião e farofa especial.",
					"image": "http://sigmaapp.com.br/naveg/img/dishes/sorvete-pacoca.jpg",
					"rating": 5,
					"price": 10.5,
					"tags": [
						"glutenfree"
					]
				},
				{
					"name": "Sopa de feijão preto",
					"description": "Acompanha palmito, baião e farofa especial.",
					"image": "http://sigmaapp.com.br/naveg/img/dishes/sopa-feijao.jpg",
					"rating": 4.2,
					"price": 15.0,
					"tags": [
						"glutenfree",
						"sugarfree",
						"milkfree"
					]
				},
				{
					"name": "Patê de grão-de-bico",
					"description": "Acompanha palmito, baião e farofa especial.",
					"image": "http://sigmaapp.com.br/naveg/img/dishes/pate-grao-bico.jpg",
					"rating": 5,
					"price": 9.0,
					"tags": [
						"glutenfree"
					]
				}
			]
		}
	],
	"bestRestaurants": [
		0, 1, 2
	]
}
